{
    "index": {
        "download_fdroid": "F-Droid herunterladen",
        "introduction": "F-Droid ist ein installierbarer Katalog mit FOSS-Apps (Free and Open Source Software) für Android. Der Client vereinfacht die Suche und Installation von Apps und behält den Überblick über Aktualisierungen.",
        "gpg_signature": "PGP-Signatur",
        "screenshot": "F-Droid App-Screenshot",
        "title": "Was ist F-Droid?"
    },
    "navigation": {
        "about": "Über",
        "contribute": "Mitarbeiten",
        "forum": "Forum",
        "browse": "Entdecken",
        "documentation": "Dokumentation",
        "repomaker": "Repomaker",
        "tutorials": "Anleitungen",
        "news": "Neuigkeiten",
        "issues": "Probleme"
    },
    "package": {
        "website": "Internetseite",
        "permissions": "Berechtigungen",
        "donate": "Spenden",
        "liberapay": "Liberapay",
        "technical_info": "Technische Informationen",
        "build_metadata": "Metadaten der Paketerstellung",
        "author": "Autor",
        "new_in_version": "Neu in Version [latest_version]",
        "version_info": "<b>Version [package_version]</b> ([package_version_code]) - Hinzugefügt am [package_added_date]",
        "changelog": "Änderungen",
        "issue_tracker": "Fehlerverfolgung",
        "signed_by_developer": "Sie ist vom Originalentwickler hergestellt und signiert.",
        "gpg_signature": "PGP-Signatur",
        "signed_by_fdroid": "Sie ist von F-Droid hergestellt, signiert und ihre Übereinstimmung mit <a href=\"[source_code_url]\">diesem Quelltext-Tarball</a> wird garantiert.",
        "packages": "Pakete",
        "download": "[file_extension] herunterladen",
        "license": "Lizenz",
        "minimum_android_version": "Diese Version benötigt Android [android_version] oder neuer.",
        "suggest_downloading_via_fdroid": "Auch wenn Ihnen hier weiter unten die Möglichkeit gegeben wird, APKs direkt herunterzuladen, sollten Sie sich bewusst machen, dass Sie so keine Benachrichtigungen über Aktualisierungen erhalten werden und diese Art des Downloads weniger Sicherheit bietet. Wir empfehlen daher, dass Sie stattdessen die F-Droid-App installieren und sie dafür nutzen.",
        "source_code": "Quelltext",
        "flattr": "Flattr",
        "anti_features": "Unerwünschte Merkmale",
        "anti_features_warning": "Diese Anwendung besitzt Merkmale, die möglicherweise unerwünscht sind."
    },
    "sidebars": {
        "latest_packages": {
            "heading": "Neuvorstellungen"
        },
        "news": {
            "heading": "Neuigkeiten"
        },
        "search": {
            "noscript": "Erfordert die Aktivierung von JavaScript",
            "search": "Suchen",
            "heading": "Apps finden"
        },
        "donate": {
            "bank_transfer_name": "Name",
            "bitcoin_alt": "Über Bitcoin spenden",
            "powered_by_donations": "F-Droid wird durch Ihre Spenden unterstützt!",
            "via_bank_transfer": "Überweisung",
            "litecoin_alt": "Über Litecoin spenden",
            "flattr_alt": "Über Flattr spenden",
            "paypal_alt": "Über PayPal spenden",
            "liberapay_alt": "Über Liberapay spenden",
            "heading": "Spenden",
            "hellotux": "👕 T-Shirts 👕 von",
            "hellotux_alt": "HELLOTUX",
            "hellotux_donation": "F-Droid erhält 3 € pro verkauftes Shirt."
        },
        "last_updated": {
            "heading": "Zuletzt aktualisiert"
        }
    }
}
