{
    "index": {
        "download_fdroid": "下载 F-Droid",
        "introduction": "F-Droid 是一个 Android 平台上 FOSS（Free and Open Source Software，自由开源软件）应用程序的目录，并提供下载安装支持。使用客户端可以更轻松地浏览、安装及跟进您设备上的应用更新。",
        "gpg_signature": "PGP 签名",
        "screenshot": "F-Droid Android 应用截图",
        "title": "F-Droid 是什么？"
    },
    "navigation": {
        "about": "关于",
        "contribute": "贡献",
        "forum": "论坛",
        "browse": "浏览",
        "documentation": "文档",
        "repomaker": "制作软件源",
        "tutorials": "教程",
        "news": "新闻",
        "issues": "反馈"
    },
    "package": {
        "anti_features_warning": "此应用有一些您未必喜欢的功能",
        "website": "网站",
        "donate": "捐赠",
        "liberapay": "Liberapay",
        "flattr": "Flattr",
        "license": "开源协议",
        "build_metadata": "编译信息",
        "new_in_version": "新版本 [latest_version]",
        "changelog": "更新日志",
        "version_info": "<b>版本 [package_version]</b> ([package_version_code]) - 添加于 [package_added_date]",
        "issue_tracker": "问题跟踪系统",
        "signed_by_developer": "此安装包由原开发者编译并签名。",
        "gpg_signature": "PGP 签名",
        "signed_by_fdroid": "此安装包由 F-Droid 编译并签名，且保证与此 <a href=\"[source_code_url]\">源代码 tarball</a> 保持一致。",
        "author": "作者",
        "technical_info": "技术信息",
        "download": "下载 [file_extension]",
        "source_code": "源代码",
        "packages": "安装包",
        "suggest_downloading_via_fdroid": "虽然我们提供 APK 文件的下载链接，但直接下载安装的话，你不会收到更新通知，而且这不是最安全的下载方式。我们推荐您安装 F-Droid 客户端并使用它来下载安装应用程序。",
        "minimum_android_version": "该版本需要 Android [android_version] 及以上版本的 Android 系统。",
        "permissions": "权限",
        "anti_features": "负特性"
    },
    "sidebars": {
        "latest_packages": {
            "heading": "最新应用"
        },
        "news": {
            "heading": "新闻"
        },
        "search": {
            "noscript": "需启用 JavaScript",
            "search": "搜索",
            "heading": "查找应用"
        },
        "donate": {
            "bank_transfer_name": "名称",
            "bitcoin_alt": "使用 Bitcoin 捐赠",
            "powered_by_donations": "您的捐赠将是 F-Droid 运行的驱动力！",
            "via_bank_transfer": "使用银行转账",
            "litecoin_alt": "使用 Litecoin 捐赠",
            "flattr_alt": "使用 Flattr 捐赠",
            "paypal_alt": "使用 PayPal 捐赠",
            "liberapay_alt": "使用 Liberapay 捐赠",
            "heading": "捐赠",
            "hellotux": "👕 T 恤衫 👕 来自",
            "hellotux_alt": "HELLOTUX",
            "hellotux_donation": "每卖出一件衬衫 F-Droid 将收到 3 欧元。"
        },
        "last_updated": {
            "heading": "最近更新"
        }
    }
}
