{
    "index": {
        "download_fdroid": "Sækja F-Droid",
        "introduction": "F-Droid er uppsetjanleg yfirlitsskrá með FOSS (frjálsum og opnum hugbúnaði) forritum fyrir Android-stýrikerfin. F-Droid forritið einfaldar mjög skoðun og uppsetningu á forritum, auk þess að halda utan um uppfærslur þeirra á tækinu þínu.",
        "gpg_signature": "PGP-undirritun",
        "screenshot": "Skjámynd af F-Droid Android-forritinu",
        "title": "Hvað er F-Droid?"
    },
    "navigation": {
        "about": "Um F-Droid",
        "contribute": "Taka þátt",
        "forum": "Vefspjall",
        "browse": "Flakka",
        "documentation": "Hjálparskjöl",
        "repomaker": "Repomaker",
        "tutorials": "Leiðbeiningar",
        "news": "Fréttir",
        "issues": "Vandamál"
    },
    "package": {
        "website": "Vefsvæði",
        "permissions": "Heimildir",
        "donate": "Styrkja",
        "liberapay": "Liberapay",
        "technical_info": "Tæknilegar upplýsingar",
        "build_metadata": "Byggja lýsigögn",
        "author": "Höfundur",
        "new_in_version": "Nýtt í útgáfu [latest_version]",
        "version_info": "<b>Útgáfa [package_version]</b> ([package_version_code]) - Bætt við þann [package_added_date]",
        "changelog": "Breytingaskrá",
        "issue_tracker": "Verkskrásetjari (tracker)",
        "signed_by_developer": "Byggt og undirritað af upprunalegum forritara.",
        "gpg_signature": "PGP-undirritun",
        "signed_by_fdroid": "Það er byggt og undirritað af F-Droid, og ábyrgst er að það samsvari <a href=\"[source_code_url]\">þessum grunnkóðapakka</a> (source tarball).",
        "packages": "Pakkar",
        "download": "Sækja [file_extension]",
        "license": "Notkunarleyfi",
        "minimum_android_version": "Þessi útgáfa krefst Android [android_version]  eða nýrri.",
        "suggest_downloading_via_fdroid": "Þrátt fyrir að niðurhalaðir APK-pakkar séu til taks hér fyrir neðan og gefi þér kost á að velja slíka uppsetningu, þá þarftu að vera meðvitaður um að með slíkri uppsetningu muntu ekki fá tilkynningar um uppfærslur og að þetta er ekki eins örugg leið við að sækja forrit. Við mælum eindregið með því að þú náir í F-Droid forritið og notir það.",
        "source_code": "Upprunakóði",
        "flattr": "Flattr",
        "anti_features": "Neikvæðir eiginleikar",
        "anti_features_warning": "Þetta forrit er með eiginleika sem þér gætu mislíkað"
    },
    "sidebars": {
        "latest_packages": {
            "heading": "Nýjustu forrit"
        },
        "news": {
            "heading": "Fréttir"
        },
        "search": {
            "noscript": "Krefst þess að JavaScript sé virkjað",
            "search": "Leita",
            "heading": "Finna forrit"
        },
        "donate": {
            "bank_transfer_name": "Nafn",
            "bitcoin_alt": "Styrkja með Bitcoin",
            "powered_by_donations": "F-Droid er drifið áfram af styrkjum!",
            "via_bank_transfer": "Bankamillifærsla",
            "litecoin_alt": "Styrkja með Litecoin",
            "flattr_alt": "Styrkja í gegnum Flattr",
            "paypal_alt": "Styrkja í gegnum PayPal",
            "liberapay_alt": "Styrkja í gegnum Liberapay",
            "heading": "Styrkja",
            "hellotux": "👕 Stuttermabolir 👕 frá",
            "hellotux_alt": "HELLOTUX",
            "hellotux_donation": "F-Droid mun fá 3 € af hverjum seldum bol."
        },
        "last_updated": {
            "heading": "Síðast uppfært"
        }
    }
}
